…
  pivot_longer(
    week_1:week_8,
    names_to = "weeks",
    values_to = "observations"
  ) %>% 
  
  mutate(
    weeks = str_replace(weeks, "week_", ""),
    weeks = as.numeric(weeks)
  )

df
```

    ## # A tibble: 160 x 4
    ##    arm     subjectID weeks observations
    ##    <chr>       <dbl> <dbl>        <dbl>
    ##  1 control         1     1         0.2 
    ##  2 control         1     2        -1.31
    ##  3 control         1     3         0.66
    ##  4 control         1     4         1.96
    ##  5 control         1     5         0.23
    ##  6 control         1     6         1.09
    ##  7 control         1     7         0.05
    ##  8 control         1     8         1.94
    ##  9 control         2     1         1.13
    ## 10 control         2     2        -0.88
    ## # ... with 150 more rows
…
}
```

do the iteration–generate 5000 dataset (mu = 0)

``` r
results_mu_0 = 
  rerun(5000, simulation(mu = 0)) %>% 
  bind_rows()

results_mu_0
```

    ## # A tibble: 5,000 x 2
    ##     mu_hat p_value
    ##      <dbl>   <dbl>
    ##  1  0.367    0.702
    ##  2  0.0165   0.986
    ##  3  0.140    0.890
    ##  4  0.162    0.858
    ##  5 -0.363    0.694
    ##  6 -0.549    0.467
    ##  7  1.43     0.137
    ##  8  0.272    0.773
    ##  9 -0.239    0.806
    ## 10 -0.750    0.340
    ## # ... with 4,990 more rows
…
